IP Upgrade report for hello
Fri Mar  6 18:33:43 2020
Quartus Prime Version 19.1.0 Build 670 09/22/2019 SJ Lite Edition


---------------------
; Table of Contents ;
---------------------
  1. Legal Notice
  2. IP Upgrade Summary
  3. Failed Upgrade IP Components
  4. IP Upgrade Messages



----------------
; Legal Notice ;
----------------
Copyright (C) 2019  Intel Corporation. All rights reserved.
Your use of Intel Corporation's design tools, logic functions 
and other software and tools, and any partner logic 
functions, and any output files from any of the foregoing 
(including device programming or simulation files), and any 
associated documentation or information are expressly subject 
to the terms and conditions of the Intel Program License 
Subscription Agreement, the Intel Quartus Prime License Agreement,
the Intel FPGA IP License Agreement, or other applicable license
agreement, including, without limitation, that your use is for
the sole purpose of programming logic devices manufactured by
Intel and sold by Intel or its authorized distributors.  Please
refer to the applicable agreement for further details, at
https://fpgasoftware.intel.com/eula.



+----------------------------------------------------------------------------+
; IP Upgrade Summary                                                         ;
+------------------------------+---------------------------------------------+
; IP Components Upgrade Status ; Passed - Fri Mar  6 18:33:43 2020           ;
; Quartus Prime Version        ; 19.1.0 Build 670 09/22/2019 SJ Lite Edition ;
; Revision Name                ; hello                                       ;
; Top-level Entity Name        ; unsaved_inst                                ;
; Family                       ; Cyclone IV E                                ;
+------------------------------+---------------------------------------------+


+-------------------------------------------------------------------------------------------------------------------------------------------------------------------------+
; Failed Upgrade IP Components                                                                                                                                            ;
+-------------+----------------+---------+-------------------------------+----------------------+-----------------+-------------------------------------------------------+
; Entity Name ; Component Name ; Version ; Original Source File          ; Generation File Path ; New Source File ; Message                                               ;
+-------------+----------------+---------+-------------------------------+----------------------+-----------------+-------------------------------------------------------+
; unsaved     ; Qsys           ; 18.1    ; unsaved/synthesis/unsaved.qip ; unsaved.qsys         ;                 ; Error upgrading Platform Designer file "unsaved.qsys" ;
+-------------+----------------+---------+-------------------------------+----------------------+-----------------+-------------------------------------------------------+


+---------------------+
; IP Upgrade Messages ;
+---------------------+
Info (11902): Backing up file "unsaved.qsys" to "unsaved.BAK.qsys"
Info (11902): Backing up file "unsaved/synthesis/unsaved.v" to "unsaved.BAK.v"
Info (11837): Started upgrading IP component Qsys with file "unsaved.qsys"
Info: 2020.03.06.18:32:50 Info: Starting to upgrade the IP cores in the Platform Designer system
Info: 2020.03.06.18:32:50 Info: Finished upgrading the ip cores
Info: 2020.03.06.18:33:07 Info: Saving generation log to /media/raul/K128/Cinvestav/Cuatrimestre2/NIOS/primerprograma/unsaved
Info: 2020.03.06.18:33:07 Info: Starting: Create simulation model
Info: 2020.03.06.18:33:07 Info: Loading primerprograma
Info: 2020.03.06.18:33:07 Info: Reading input file
Info: 2020.03.06.18:33:07 Info: Adding button [altera_avalon_pio 19.1]
Info: 2020.03.06.18:33:07 Info: Parameterizing module button
Info: 2020.03.06.18:33:07 Info: Adding clk [clock_source 19.1]
Info: 2020.03.06.18:33:07 Info: Parameterizing module clk
Info: 2020.03.06.18:33:07 Info: Adding cpu [altera_nios2_gen2 19.1]
Info: 2020.03.06.18:33:07 Info: Parameterizing module cpu
Info: 2020.03.06.18:33:07 Info: Adding hex0 [altera_avalon_pio 19.1]
Info: 2020.03.06.18:33:07 Info: Parameterizing module hex0
Info: 2020.03.06.18:33:07 Info: Adding hex1 [altera_avalon_pio 19.1]
Info: 2020.03.06.18:33:07 Info: Parameterizing module hex1
Info: 2020.03.06.18:33:07 Info: Adding hex2 [altera_avalon_pio 19.1]
Info: 2020.03.06.18:33:07 Info: Parameterizing module hex2
Info: 2020.03.06.18:33:07 Info: Adding hex3 [altera_avalon_pio 19.1]
Info: 2020.03.06.18:33:07 Info: Parameterizing module hex3
Info: 2020.03.06.18:33:07 Info: Adding hex4 [altera_avalon_pio 19.1]
Info: 2020.03.06.18:33:07 Info: Parameterizing module hex4
Info: 2020.03.06.18:33:07 Info: Adding hex5 [altera_avalon_pio 19.1]
Info: 2020.03.06.18:33:07 Info: Parameterizing module hex5
Info: 2020.03.06.18:33:07 Info: Adding jtag_uart [altera_avalon_jtag_uart 19.1]
Info: 2020.03.06.18:33:07 Info: Parameterizing module jtag_uart
Info: 2020.03.06.18:33:07 Info: Adding led [altera_avalon_pio 19.1]
Info: 2020.03.06.18:33:07 Info: Parameterizing module led
Info: 2020.03.06.18:33:07 Info: Adding onchip_memory2_0 [altera_avalon_onchip_memory2 19.1]
Info: 2020.03.06.18:33:07 Info: Parameterizing module onchip_memory2_0
Info: 2020.03.06.18:33:07 Info: Adding switch [altera_avalon_pio 19.1]
Info: 2020.03.06.18:33:07 Info: Parameterizing module switch
Info: 2020.03.06.18:33:07 Info: Building connections
Info: 2020.03.06.18:33:07 Info: Parameterizing connections
Info: 2020.03.06.18:33:07 Info: Validating
Info: 2020.03.06.18:33:08 Info: Done reading input file
Info: 2020.03.06.18:33:09 Info: unsaved.button: PIO inputs are not hardwired in test bench. Undefined values will be read from PIO inputs during simulation.
Info: 2020.03.06.18:33:09 Info: unsaved.jtag_uart: JTAG UART IP input clock need to be at least double (2x) the operating frequency of JTAG TCK on board
Info: 2020.03.06.18:33:09 Info: unsaved.switch: PIO inputs are not hardwired in test bench. Undefined values will be read from PIO inputs during simulation.
Info: 2020.03.06.18:33:10 Info: unsaved: Generating unsaved "unsaved" for SIM_VERILOG
Info: 2020.03.06.18:33:23 Info: button: Starting RTL generation for module 'unsaved_button'
Info: 2020.03.06.18:33:23 Info: button:   Generation command is [exec /media/raul/K64/opt/intelFPGA_lite/quartus/linux64/perl/bin/perl -I /media/raul/K64/opt/intelFPGA_lite/quartus/sopc_builder/bin/europa -I /media/raul/K64/opt/intelFPGA_lite/quartus/sopc_builder/bin -I /media/raul/K64/opt/intelFPGA_lite/quartus/../ip/altera/sopc_builder_ip/common -I /media/raul/K64/opt/intelFPGA_lite/quartus/../ip/altera/sopc_builder_ip/altera_avalon_pio -- /media/raul/K64/opt/intelFPGA_lite/quartus/../ip/altera/sopc_builder_ip/altera_avalon_pio/generate_rtl.pl --name=unsaved_button --dir=/tmp/alt8328_2321919912546238832.dir/0002_button_gen/ --quartus_dir=/media/raul/K64/opt/intelFPGA_lite/quartus --verilog --config=/tmp/alt8328_2321919912546238832.dir/0002_button_gen//unsaved_button_component_configuration.pl  --do_build_sim=1    --sim_dir=/tmp/alt8328_2321919912546238832.dir/0002_button_gen
Info: 2020.03.06.18:33:23 Info: button: Can't locate Getopt/Long.pm in @INC (you may need to install the Getopt::Long module) (@INC contains: /media/raul/K64/opt/intelFPGA_lite/quartus/sopc_builder/bin/europa /media/raul/K64/opt/intelFPGA_lite/quartus/sopc_builder/bin /media/raul/K64/opt/intelFPGA_lite/quartus/../ip/altera/sopc_builder_ip/common /media/raul/K64/opt/intelFPGA_lite/quartus/../ip/altera/sopc_builder_ip/altera_avalon_pio /tools/perl/5.28.1/linux64/lib/site_perl/5.28.1/x86_64-linux /tools/perl/5.28.1/linux64/lib/site_perl/5.28.1 /tools/perl/5.28.1/linux64/lib/5.28.1/x86_64-linux /tools/perl/5.28.1/linux64/lib/5.28.1) at /media/raul/K64/opt/intelFPGA_lite/quartus/../ip/altera/sopc_builder_ip/altera_avalon_pio
Info: 2020.03.06.18:33:23 Info: button: BEGIN failed--compilation aborted at /media/raul/K64/opt/intelFPGA_lite/quartus/../ip/altera/sopc_builder_ip/altera_avalon_pio
Error: 2020.03.06.18:33:23 Error: button: Failed to find module unsaved_button
Info: 2020.03.06.18:33:23 Info: button: "unsaved" instantiated altera_avalon_pio "button"
Error: 2020.03.06.18:33:23 Error: Generation stopped, 15 or more modules remaining
Info: 2020.03.06.18:33:23 Info: unsaved: Done "unsaved" with 11 modules, 1 files
Error: 2020.03.06.18:33:23 Error: qsys-generate failed with exit code 1: 2 Errors, 0 Warnings
Info: 2020.03.06.18:33:23 Info: Finished: Create simulation model
Info: 2020.03.06.18:33:23 Info: Starting: Create Modelsim Project.
Info: 2020.03.06.18:33:23 Info: sim-script-gen --spd=/media/raul/K128/Cinvestav/Cuatrimestre2/NIOS/primerprograma/unsaved/unsaved.spd --output-directory=/media/raul/K128/Cinvestav/Cuatrimestre2/NIOS/primerprograma/unsaved/simulation
Info: 2020.03.06.18:33:24 Info: Doing: ip-make-simscript --spd=/media/raul/K128/Cinvestav/Cuatrimestre2/NIOS/primerprograma/unsaved/unsaved.spd --output-directory=/media/raul/K128/Cinvestav/Cuatrimestre2/NIOS/primerprograma/unsaved/simulation
Info: 2020.03.06.18:33:27 Info: Generating the following file(s) for MODELSIM simulator in /media/raul/K128/Cinvestav/Cuatrimestre2/NIOS/primerprograma/unsaved/simulation
Info: 2020.03.06.18:33:27 Info:     mentor
Info: 2020.03.06.18:33:27 Info: Generating the following file(s) for VCS simulator in /media/raul/K128/Cinvestav/Cuatrimestre2/NIOS/primerprograma/unsaved/simulation
Info: 2020.03.06.18:33:27 Info:     synopsys/vcs
Info: 2020.03.06.18:33:27 Info: Generating the following file(s) for VCSMX simulator in /media/raul/K128/Cinvestav/Cuatrimestre2/NIOS/primerprograma/unsaved/simulation
Info: 2020.03.06.18:33:27 Info:     synopsys/vcsmx
Info: 2020.03.06.18:33:27 Info:     synopsys/vcsmx
Info: 2020.03.06.18:33:27 Info: Generating the following file(s) for NCSIM simulator in /media/raul/K128/Cinvestav/Cuatrimestre2/NIOS/primerprograma/unsaved/simulation
Info: 2020.03.06.18:33:27 Info:     cadence
Info: 2020.03.06.18:33:27 Info:     cadence
Info: 2020.03.06.18:33:27 Info:     cadence
Info: 2020.03.06.18:33:27 Info: Generating the following file(s) for RIVIERA simulator in /media/raul/K128/Cinvestav/Cuatrimestre2/NIOS/primerprograma/unsaved/simulation
Info: 2020.03.06.18:33:27 Info:     aldec
Info: 2020.03.06.18:33:27 Info: For information on how to simulate your IP, see the explanatory comments in the simulator-specific subdirectories under /media/raul/K128/Cinvestav/Cuatrimestre2/NIOS/primerprograma/unsaved/simulation
Info: 2020.03.06.18:33:27 Info: Regenerate these scripts whenever you make any change to any Quartus-generated IP in your project.
Info: 2020.03.06.18:33:27 Info: Finished: Create Modelsim Project.
Info: 2020.03.06.18:33:27 Info: Starting: Create block symbol file (.bsf)
Info: 2020.03.06.18:33:27 Info: Loading primerprograma
Info: 2020.03.06.18:33:27 Info: Reading input file
Info: 2020.03.06.18:33:27 Info: Adding button [altera_avalon_pio 19.1]
Info: 2020.03.06.18:33:27 Info: Parameterizing module button
Info: 2020.03.06.18:33:27 Info: Adding clk [clock_source 19.1]
Info: 2020.03.06.18:33:27 Info: Parameterizing module clk
Info: 2020.03.06.18:33:27 Info: Adding cpu [altera_nios2_gen2 19.1]
Info: 2020.03.06.18:33:27 Info: Parameterizing module cpu
Info: 2020.03.06.18:33:27 Info: Adding hex0 [altera_avalon_pio 19.1]
Info: 2020.03.06.18:33:27 Info: Parameterizing module hex0
Info: 2020.03.06.18:33:27 Info: Adding hex1 [altera_avalon_pio 19.1]
Info: 2020.03.06.18:33:27 Info: Parameterizing module hex1
Info: 2020.03.06.18:33:27 Info: Adding hex2 [altera_avalon_pio 19.1]
Info: 2020.03.06.18:33:27 Info: Parameterizing module hex2
Info: 2020.03.06.18:33:27 Info: Adding hex3 [altera_avalon_pio 19.1]
Info: 2020.03.06.18:33:27 Info: Parameterizing module hex3
Info: 2020.03.06.18:33:27 Info: Adding hex4 [altera_avalon_pio 19.1]
Info: 2020.03.06.18:33:27 Info: Parameterizing module hex4
Info: 2020.03.06.18:33:27 Info: Adding hex5 [altera_avalon_pio 19.1]
Info: 2020.03.06.18:33:27 Info: Parameterizing module hex5
2020.03.06.18:33:27 Info: Adding jtag_uart [altera_avalon_jtag_uart 19.1]
Info: 2020.03.06.18:33:27 Info: Parameterizing module jtag_uart
Info: 2020.03.06.18:33:27 Info: Adding led [altera_avalon_pio 19.1]
Info: 2020.03.06.18:33:27 Info: Parameterizing module led
Info: 2020.03.06.18:33:27 Info: Adding onchip_memory2_0 [altera_avalon_onchip_memory2 19.1]
Info: 2020.03.06.18:33:27 Info: Parameterizing module onchip_memory2_0
Info: 2020.03.06.18:33:27 Info: Adding switch [altera_avalon_pio 19.1]
Info: 2020.03.06.18:33:27 Info: Parameterizing module switch
Info: 2020.03.06.18:33:27 Info: Building connections
Info: 2020.03.06.18:33:27 Info: Parameterizing connections
Info: 2020.03.06.18:33:27 Info: Validating
Info: 2020.03.06.18:33:28 Info: Done reading input file
Info: 2020.03.06.18:33:28 Info: unsaved.button: PIO inputs are not hardwired in test bench. Undefined values will be read from PIO inputs during simulation.
Info: 2020.03.06.18:33:28 Info: unsaved.jtag_uart: JTAG UART IP input clock need to be at least double (2x) the operating frequency of JTAG TCK on board
Info: 2020.03.06.18:33:28 Info: unsaved.switch: PIO inputs are not hardwired in test bench. Undefined values will be read from PIO inputs during simulation.
Info: 2020.03.06.18:33:30 Info: qsys-generate succeeded.
Info: 2020.03.06.18:33:30 Info: Finished: Create block symbol file (.bsf)
Info: 2020.03.06.18:33:30 Info: Loading primerprograma
Info: 2020.03.06.18:33:30 Info: Reading input file
Info: 2020.03.06.18:33:30 Info: Adding button [altera_avalon_pio 19.1]
Info: 2020.03.06.18:33:30 Info: Parameterizing module button
Info: 2020.03.06.18:33:30 Info: Adding clk [clock_source 19.1]
Info: 2020.03.06.18:33:30 Info: Parameterizing module clk
Info: 2020.03.06.18:33:30 Info: Adding cpu [altera_nios2_gen2 19.1]
Info: 2020.03.06.18:33:30 Info: Parameterizing module cpu
Info: 2020.03.06.18:33:30 Info: Adding hex0 [altera_avalon_pio 19.1]
Info: 2020.03.06.18:33:30 Info: Parameterizing module hex0
Info: 2020.03.06.18:33:30 Info: Adding hex1 [altera_avalon_pio 19.1]
Info: 2020.03.06.18:33:30 Info: Parameterizing module hex1
Info: 2020.03.06.18:33:30 Info: Adding hex2 [altera_avalon_pio 19.1]
Info: 2020.03.06.18:33:30 Info: Parameterizing module hex2
Info: 2020.03.06.18:33:30 Info: Adding hex3 [altera_avalon_pio 19.1]
Info: 2020.03.06.18:33:30 Info: Parameterizing module hex3
2020.03.06.18:33:30 Info: Adding hex4 [altera_avalon_pio 19.1]
2020.03.06.18:33:30 Info: Parameterizing module hex4
2020.03.06.18:33:30 Info: Adding hex5 [altera_avalon_pio 19.1]
2020.03.06.18:33:30 Info: Parameterizing module hex5
Info: 2020.03.06.18:33:30 Info: Adding jtag_uart [altera_avalon_jtag_uart 19.1]
Info: 2020.03.06.18:33:30 Info: Parameterizing module jtag_uart
Info: 2020.03.06.18:33:30 Info: Adding led [altera_avalon_pio 19.1]
Info: 2020.03.06.18:33:30 Info: Parameterizing module led
Info: 2020.03.06.18:33:30 Info: Adding onchip_memory2_0 [altera_avalon_onchip_memory2 19.1]
Info: 2020.03.06.18:33:30 Info: Parameterizing module onchip_memory2_0
Info: 2020.03.06.18:33:30 Info: Adding switch [altera_avalon_pio 19.1]
Info: 2020.03.06.18:33:30 Info: Parameterizing module switch
Info: 2020.03.06.18:33:30 Info: Building connections
Info: 2020.03.06.18:33:30 Info: Parameterizing connections
Info: 2020.03.06.18:33:30 Info: Validating
Info: 2020.03.06.18:33:30 Info: Done reading input file
Info: 2020.03.06.18:33:31 Info: unsaved.button: PIO inputs are not hardwired in test bench. Undefined values will be read from PIO inputs during simulation.
Info: 2020.03.06.18:33:31 Info: unsaved.jtag_uart: JTAG UART IP input clock need to be at least double (2x) the operating frequency of JTAG TCK on board
Info: 2020.03.06.18:33:31 Info: unsaved.switch: PIO inputs are not hardwired in test bench. Undefined values will be read from PIO inputs during simulation.
Info: 2020.03.06.18:33:33 Info: unsaved: Generating unsaved "unsaved" for QUARTUS_SYNTH
Info: 2020.03.06.18:33:41 Info: button: Starting RTL generation for module 'unsaved_button'
Info: 2020.03.06.18:33:41 Info: button:   Generation command is [exec /media/raul/K64/opt/intelFPGA_lite/quartus/linux64/perl/bin/perl -I /media/raul/K64/opt/intelFPGA_lite/quartus/sopc_builder/bin/europa -I /media/raul/K64/opt/intelFPGA_lite/quartus/sopc_builder/bin -I /media/raul/K64/opt/intelFPGA_lite/quartus/../ip/altera/sopc_builder_ip/common -I /media/raul/K64/opt/intelFPGA_lite/quartus/../ip/altera/sopc_builder_ip/altera_avalon_pio -- /media/raul/K64/opt/intelFPGA_lite/quartus/../ip/altera/sopc_builder_ip/altera_avalon_pio/generate_rtl.pl --name=unsaved_button --dir=/tmp/alt8328_2321919912546238832.dir/0004_button_gen/ --quartus_dir=/media/raul/K64/opt/intelFPGA_lite/quartus --verilog --config=/tmp/alt8328_2321919912546238832.dir/0004_button_gen/
Info: 2020.03.06.18:33:41 Info: button: Can't locate Getopt/Long.pm in @INC (you may need to install the Getopt::Long module) (@INC contains: /media/raul/K64/opt/intelFPGA_lite/quartus/sopc_builder/bin/europa /media/raul/K64/opt/intelFPGA_lite/quartus/sopc_builder/bin /media/raul/K64/opt/intelFPGA_lite/quartus/../ip/altera/sopc_builder_ip/common /media/raul/K64/opt/intelFPGA_lite/quartus/../ip/altera/sopc_builder_ip/altera_avalon_pio /tools/perl/5.28.1/linux64/lib/site_perl/5.28.1/x86_64-linux /tools/perl/5.28.1/linux64/lib/site_perl/5.28.1 /tools/perl/5.28.1/linux64/lib/5.28.1/x86_64-linux /tools/perl/5.28.1/linux64/lib/5.28.1) at /media/raul/K64/opt/intelFPGA_lite/quartus/../ip/altera/sopc_builder_ip/altera_avalon_pio
Info: 2020.03.06.18:33:41 Info: button: BEGIN failed--compilation aborted at /media/raul/K64/opt/intelFPGA_lite/quartus/../ip/altera/sopc_builder_ip/altera_avalon_pio
Error: 2020.03.06.18:33:41 Error: button: Failed to find module unsaved_button
Info: 2020.03.06.18:33:41 Info: button: "unsaved" instantiated altera_avalon_pio "button"
Error: 2020.03.06.18:33:41 Error: Generation stopped, 15 or more modules remaining
Info: 2020.03.06.18:33:41 Info: unsaved: Done "unsaved" with 11 modules, 1 files
Error: 2020.03.06.18:33:42 Error: qsys-generate failed with exit code 1: 2 Errors, 0 Warnings
Info: 2020.03.06.18:33:42 Info: Finished: Create HDL design files for synthesis
Info (11904): Restoring file "unsaved.BAK.qsys" to "unsaved.qsys"
Error (14923): Error upgrading Platform Designer file "unsaved.qsys"
Error (11890): Unable to automatically upgrade Platform Designer component. Please manually upgrade "unsaved.qsys" in Platform Designer
Error (23031): Evaluation of Tcl script /media/raul/K64/opt/intelFPGA_lite/quartus/common/tcl/internal/ip_regen/ip_regen.tcl unsuccessful
Error: Quartus Prime Shell was unsuccessful. 9 errors, 0 warnings
    Error: Peak virtual memory: 1048 megabytes
    Error: Processing ended: Fri Mar  6 18:33:43 2020
    Error: Elapsed time: 00:01:36
    Error: Total CPU time (on all processors): 00:02:38


